#
# There is insufficient memory for the Java Runtime Environment to continue.
# Native memory allocation (malloc) failed to allocate 2097152 bytes for AllocateHeap
# Possible reasons:
#   The system is out of physical RAM or swap space
#   The process is running with CompressedOops enabled, and the Java Heap may be blocking the growth of the native heap
# Possible solutions:
#   Reduce memory load on the system
#   Increase physical memory or swap space
#   Check if swap backing store is full
#   Decrease Java heap size (-Xmx/-Xms)
#   Decrease number of Java threads
#   Decrease Java thread stack sizes (-Xss)
#   Set larger code cache with -XX:ReservedCodeCacheSize=
#   JVM is running with Unscaled Compressed Oops mode in which the Java heap is
#     placed in the first 4GB address space. The Java Heap base address is the
#     maximum limit for the native heap growth. Please use -XX:HeapBaseMinAddress
#     to set the Java Heap base and to place the Java Heap above 4GB virtual address.
# This output file may be truncated or incomplete.
#
#  Out of Memory Error (./open/src/hotspot/share/memory/allocation.cpp:44), pid=12236, tid=1376
#
# JRE version: OpenJDK Runtime Environment (15.0+36) (build 15+36-1562)
# Java VM: OpenJDK 64-Bit Server VM (15+36-1562, mixed mode, tiered, compressed oops, g1 gc, windows-amd64)
# No core dump will be written. Minidumps are not enabled by default on client versions of Windows
#

---------------  S U M M A R Y ------------

Command Line: -Dfile.encoding=UTF-8 -XX:+ShowCodeDetailsInExceptionMessages com.user.userauthentication.UserAuthenticationApplication

Host: Intel(R) Core(TM) i3-6006U CPU @ 2.00GHz, 4 cores, 3G,  Windows 10 , 64 bit Build 18362 (10.0.18362.778)
Time: Thu Dec 17 18:02:21 2020 India Standard Time elapsed time: 10406.550195 seconds (0d 2h 53m 26s)

---------------  T H R E A D  ---------------

Current thread (0x0000020eed457f70):  VMThread "VM Thread" [stack: 0x000000ae74e00000,0x000000ae74f00000] [id=1376]

Stack: [0x000000ae74e00000,0x000000ae74f00000]
[error occurred during error reporting (printing stack bounds), id 0xc0000005, EXCEPTION_ACCESS_VIOLATION (0xc0000005) at pc=0x0000020ed9a110ad]

Native frames: (J=compiled Java code, j=interpreted, Vv=VM code, C=native code)
V  [jvm.dll+0x629eaa]
V  [jvm.dll+0x780379]
V  [jvm.dll+0x781ad3]
V  [jvm.dll+0x782095]
V  [jvm.dll+0x78204b]
V  [jvm.dll+0x629379]
V  [jvm.dll+0x629b48]
C  [ntdll.dll+0xa11cf]
C  [ntdll.dll+0x6a209]
C  [ntdll.dll+0x9fe3e]
C  0x0000020ed9a110ad

VM_Operation (0x000000ae766ff100): G1CollectFull, mode: safepoint, requested by thread 0x0000020ef25289e0


---------------  P R O C E S S  ---------------

Threads class SMR info:
_java_thread_list=0x0000020ef0d427b0, length=17, elements={
0x0000020eed46e680, 0x0000020eed46f060, 0x0000020eedc8a420, 0x0000020eedc8ccf0,
0x0000020eedc8d5b0, 0x0000020eedcc8ab0, 0x0000020eedcc9460, 0x0000020eedcca550,
0x0000020eede39e00, 0x0000020eede51a80, 0x0000020eeed95ef0, 0x0000020eeed95080,
0x0000020ef2540b10, 0x0000020ef2543660, 0x0000020ef2540fe0, 0x0000020ef253e960,
0x0000020ef25289e0
}

Java Threads: ( => current thread )
  0x0000020eed46e680 JavaThread "Reference Handler" daemon [_thread_blocked, id=10980, stack(0x000000ae74f00000,0x000000ae75000000)]
  0x0000020eed46f060 JavaThread "Finalizer" daemon [_thread_blocked, id=8924, stack(0x000000ae75000000,0x000000ae75100000)]
  0x0000020eedc8a420 JavaThread "Signal Dispatcher" daemon [_thread_blocked, id=9068, stack(0x000000ae75100000,0x000000ae75200000)]
  0x0000020eedc8ccf0 JavaThread "Attach Listener" daemon [_thread_blocked, id=12164, stack(0x000000ae75200000,0x000000ae75300000)]
  0x0000020eedc8d5b0 JavaThread "Service Thread" daemon [_thread_blocked, id=4228, stack(0x000000ae75300000,0x000000ae75400000)]
  0x0000020eedcc8ab0 JavaThread "C2 CompilerThread0" daemon [_thread_blocked, id=8824, stack(0x000000ae75400000,0x000000ae75500000)]
  0x0000020eedcc9460 JavaThread "C1 CompilerThread0" daemon [_thread_blocked, id=11072, stack(0x000000ae75500000,0x000000ae75600000)]
  0x0000020eedcca550 JavaThread "Sweeper thread" daemon [_thread_blocked, id=2844, stack(0x000000ae75600000,0x000000ae75700000)]
  0x0000020eede39e00 JavaThread "Notification Thread" daemon [_thread_blocked, id=5648, stack(0x000000ae75700000,0x000000ae75800000)]
  0x0000020eede51a80 JavaThread "Common-Cleaner" daemon [_thread_blocked, id=8600, stack(0x000000ae75900000,0x000000ae75a00000)]
  0x0000020eeed95ef0 JavaThread "mysql-cj-abandoned-connection-cleanup" daemon [_thread_blocked, id=5616, stack(0x000000ae76400000,0x000000ae76500000)]
  0x0000020eeed95080 JavaThread "Live Reload Server" daemon [_thread_in_native, id=4608, stack(0x000000ae76700000,0x000000ae76800000)]
  0x0000020ef2540b10 JavaThread "DestroyJavaVM" [_thread_blocked, id=4160, stack(0x000000ae74800000,0x000000ae74900000)]
  0x0000020ef2543660 JavaThread "File Watcher" daemon [_thread_blocked, id=9904, stack(0x000000ae75d00000,0x000000ae75e00000)]
  0x0000020ef2540fe0 JavaThread "File Watcher" daemon [_thread_blocked, id=7040, stack(0x000000ae75e00000,0x000000ae75f00000)]
  0x0000020ef253e960 JavaThread "File Watcher" daemon [_thread_blocked, id=6792, stack(0x000000ae74500000,0x000000ae74600000)]
  0x0000020ef25289e0 JavaThread "Thread-47" [_thread_blocked, id=10824, stack(0x000000ae76600000,0x000000ae76700000)]

Other Threads:
=>0x0000020eed457f70 VMThread "VM Thread" [stack: 0x000000ae74e00000,0x000000ae74f00000] [id=1376]
  0x0000020eede3a2d0 WatcherThread [stack: 0x000000ae75800000,0x000000ae75900000] [id=3108]
  0x0000020ed603f140 GCTaskThread "GC Thread#0" [stack: 0x000000ae74900000,0x000000ae74a00000] [id=3720]
  0x0000020eee26c510 GCTaskThread "GC Thread#1" [stack: 0x000000ae75a00000,0x000000ae75b00000] [id=3252]
  0x0000020eee26d1d0 GCTaskThread "GC Thread#2" [stack: 0x000000ae75f00000,0x000000ae76000000] [id=5256]
  0x0000020eee26f4e0 GCTaskThread "GC Thread#3" [stack: 0x000000ae76000000,0x000000ae76100000] [id=3184]
  0x0000020ed6049690 ConcurrentGCThread "G1 Main Marker" [stack: 0x000000ae74a00000,0x000000ae74b00000] [id=10104]
  0x0000020ed604c130 ConcurrentGCThread "G1 Conc#0" [stack: 0x000000ae74b00000,0x000000ae74c00000] [id=3336]
  0x0000020eed290090 ConcurrentGCThread "G1 Refine#0" [stack: 0x000000ae74c00000,0x000000ae74d00000] [id=1296]
  0x0000020eee6f2ac0 ConcurrentGCThread "G1 Refine#1" [stack: 0x000000ae75b00000,0x000000ae75c00000] [id=6832]
  0x0000020eed290940 ConcurrentGCThread "G1 Young RemSet Sampling" [stack: 0x000000ae74d00000,0x000000ae74e00000] [id=2572]

Threads with active compile tasks:
C2 CompilerThread0  10407139 9901       4       com.sun.crypto.provider.CipherCore::getOutputSizeByOperation (177 bytes)

VM state: at safepoint (normal execution)

VM Mutex/Monitor currently owned by a thread:  ([mutex/lock_event])
[0x0000020ed600b540] Threads_lock - owner thread: 0x0000020eed457f70
[0x0000020ed600c2c0] Heap_lock - owner thread: 0x0000020ef25289e0

Heap address: 0x00000000c1a00000, size: 998 MB, Compressed Oops mode: 32-bit
CDS disabled.
Compressed class space mapped at: 0x0000000100000000-0x0000000140000000, size: 1073741824
Narrow klass base: 0x0000000000000000, Narrow klass shift: 3, Narrow klass range: 0x140000000

GC Precious Log:
 CPUs: 4 total, 4 available
 Memory: 3986M
 Large Page Support: Disabled
 NUMA Support: Disabled
 Compressed Oops: Enabled (32-bit)
 Heap Region Size: 1M
 Heap Min Capacity: 8M
 Heap Initial Capacity: 64M
 Heap Max Capacity: 998M
 Pre-touch: Disabled
 Parallel Workers: 4
 Concurrent Workers: 1
 Concurrent Refinement Workers: 4
 Periodic GC: Disabled

Heap:
 garbage-first heap   total 86016K, used 35716K [0x00000000c1a00000, 0x0000000100000000)
  region size 1024K, 12 young (12288K), 6 survivors (6144K)
 Metaspace       used 71523K, capacity 72222K, committed 72960K, reserved 1114112K
  class space    used 8423K, capacity 8730K, committed 8960K, reserved 1048576K

Heap Regions: E=young(eden), S=young(survivor), O=old, HS=humongous(starts), HC=humongous(continues), CS=collection set, F=free, OA=open archive, CA=closed archive, TAMS=top-at-mark-start (previous, next)
|   0|0x00000000c1a00000, 0x00000000c1b00000, 0x00000000c1b00000|100%|HS|  |TAMS 0x00000000c1b00000, 0x00000000c1a00000| Complete 
|   1|0x00000000c1b00000, 0x00000000c1bf5a58, 0x00000000c1c00000| 95%| O|  |TAMS 0x00000000c1bf5a58, 0x00000000c1b00000| Untracked 
|   2|0x00000000c1c00000, 0x00000000c1cf6bf8, 0x00000000c1d00000| 96%| O|  |TAMS 0x00000000c1cf6bf8, 0x00000000c1c00000| Untracked 
|   3|0x00000000c1d00000, 0x00000000c1e00000, 0x00000000c1e00000|100%| O|  |TAMS 0x00000000c1e00000, 0x00000000c1d00000| Untracked 
|   4|0x00000000c1e00000, 0x00000000c1eff148, 0x00000000c1f00000| 99%| O|  |TAMS 0x00000000c1eff148, 0x00000000c1e00000| Untracked 
|   5|0x00000000c1f00000, 0x00000000c1ffffb0, 0x00000000c2000000| 99%| O|  |TAMS 0x00000000c1ffffb0, 0x00000000c1f00000| Untracked 
|   6|0x00000000c2000000, 0x00000000c20fffd0, 0x00000000c2100000| 99%| O|  |TAMS 0x00000000c20fffd0, 0x00000000c2000000| Untracked 
|   7|0x00000000c2100000, 0x00000000c21fff88, 0x00000000c2200000| 99%| O|  |TAMS 0x00000000c21fff88, 0x00000000c2100000| Untracked 
|   8|0x00000000c2200000, 0x00000000c22fff80, 0x00000000c2300000| 99%| O|  |TAMS 0x00000000c22fff80, 0x00000000c2200000| Untracked 
|   9|0x00000000c2300000, 0x00000000c23ffff8, 0x00000000c2400000| 99%| O|  |TAMS 0x00000000c23ffff8, 0x00000000c2300000| Untracked 
|  10|0x00000000c2400000, 0x00000000c2500000, 0x00000000c2500000|100%| O|  |TAMS 0x00000000c2500000, 0x00000000c2400000| Untracked 
|  11|0x00000000c2500000, 0x00000000c25fffd0, 0x00000000c2600000| 99%| O|  |TAMS 0x00000000c25fffd0, 0x00000000c2500000| Untracked 
|  12|0x00000000c2600000, 0x00000000c26ffff8, 0x00000000c2700000| 99%| O|  |TAMS 0x00000000c26ffff8, 0x00000000c2600000| Untracked 
|  13|0x00000000c2700000, 0x00000000c27ffff0, 0x00000000c2800000| 99%| O|  |TAMS 0x00000000c27ffff0, 0x00000000c2700000| Untracked 
|  14|0x00000000c2800000, 0x00000000c28fffd8, 0x00000000c2900000| 99%| O|  |TAMS 0x00000000c28fffd8, 0x00000000c2800000| Untracked 
|  15|0x00000000c2900000, 0x00000000c29fffa8, 0x00000000c2a00000| 99%| O|  |TAMS 0x00000000c29fffa8, 0x00000000c2900000| Untracked 
|  16|0x00000000c2a00000, 0x00000000c2afe698, 0x00000000c2b00000| 99%| O|  |TAMS 0x00000000c2afe698, 0x00000000c2a00000| Complete 
|  17|0x00000000c2b00000, 0x00000000c2c00000, 0x00000000c2c00000|100%| O|  |TAMS 0x00000000c2c00000, 0x00000000c2b00000| Untracked 
|  18|0x00000000c2c00000, 0x00000000c2c00000, 0x00000000c2d00000|  0%| F|  |TAMS 0x00000000c2c00000, 0x00000000c2c00000| Untracked 
|  19|0x00000000c2d00000, 0x00000000c2e00000, 0x00000000c2e00000|100%| O|  |TAMS 0x00000000c2e00000, 0x00000000c2d00000| Complete 
|  20|0x00000000c2e00000, 0x00000000c2ee8e48, 0x00000000c2f00000| 90%| O|  |TAMS 0x00000000c2ee8e48, 0x00000000c2e00000| Complete 
|  21|0x00000000c2f00000, 0x00000000c2f7d428, 0x00000000c3000000| 48%| O|  |TAMS 0x00000000c2f7d428, 0x00000000c2f00000| Complete 
|  22|0x00000000c3000000, 0x00000000c30fffe8, 0x00000000c3100000| 99%| O|  |TAMS 0x00000000c30fffe8, 0x00000000c3000000| Complete 
|  23|0x00000000c3100000, 0x00000000c31cb128, 0x00000000c3200000| 79%| O|  |TAMS 0x00000000c31cb128, 0x00000000c3100000| Complete 
|  24|0x00000000c3200000, 0x00000000c3300000, 0x00000000c3300000|100%| O|  |TAMS 0x00000000c3200000, 0x00000000c3200000| Untracked 
|  25|0x00000000c3300000, 0x00000000c33d5c00, 0x00000000c3400000| 83%| O|  |TAMS 0x00000000c3300000, 0x00000000c3300000| Untracked 
|  26|0x00000000c3400000, 0x00000000c3400000, 0x00000000c3500000|  0%| F|  |TAMS 0x00000000c3400000, 0x00000000c3400000| Untracked 
|  27|0x00000000c3500000, 0x00000000c3500000, 0x00000000c3600000|  0%| F|  |TAMS 0x00000000c3500000, 0x00000000c3500000| Untracked 
|  28|0x00000000c3600000, 0x00000000c363bdf0, 0x00000000c3700000| 23%| O|  |TAMS 0x00000000c363bdf0, 0x00000000c3600000| Complete 
|  29|0x00000000c3700000, 0x00000000c3700000, 0x00000000c3800000|  0%| F|  |TAMS 0x00000000c3700000, 0x00000000c3700000| Untracked 
|  30|0x00000000c3800000, 0x00000000c3800000, 0x00000000c3900000|  0%| F|  |TAMS 0x00000000c3800000, 0x00000000c3800000| Untracked 
|  31|0x00000000c3900000, 0x00000000c3900000, 0x00000000c3a00000|  0%| F|  |TAMS 0x00000000c3900000, 0x00000000c3900000| Untracked 
|  32|0x00000000c3a00000, 0x00000000c3a00000, 0x00000000c3b00000|  0%| F|  |TAMS 0x00000000c3a00000, 0x00000000c3a00000| Untracked 
|  33|0x00000000c3b00000, 0x00000000c3b00000, 0x00000000c3c00000|  0%| F|  |TAMS 0x00000000c3b00000, 0x00000000c3b00000| Untracked 
|  34|0x00000000c3c00000, 0x00000000c3c00000, 0x00000000c3d00000|  0%| F|  |TAMS 0x00000000c3c00000, 0x00000000c3c00000| Untracked 
|  35|0x00000000c3d00000, 0x00000000c3db4900, 0x00000000c3e00000| 70%| S|CS|TAMS 0x00000000c3d00000, 0x00000000c3d00000| Complete 
|  36|0x00000000c3e00000, 0x00000000c3f00000, 0x00000000c3f00000|100%| S|CS|TAMS 0x00000000c3e00000, 0x00000000c3e00000| Complete 
|  37|0x00000000c3f00000, 0x00000000c3f00000, 0x00000000c4000000|  0%| F|  |TAMS 0x00000000c3f00000, 0x00000000c3f00000| Untracked 
|  38|0x00000000c4000000, 0x00000000c4100000, 0x00000000c4100000|100%| S|CS|TAMS 0x00000000c4000000, 0x00000000c4000000| Complete 
|  39|0x00000000c4100000, 0x00000000c4200000, 0x00000000c4200000|100%| S|CS|TAMS 0x00000000c4100000, 0x00000000c4100000| Complete 
|  40|0x00000000c4200000, 0x00000000c4300000, 0x00000000c4300000|100%| S|CS|TAMS 0x00000000c4200000, 0x00000000c4200000| Complete 
|  41|0x00000000c4300000, 0x00000000c4300000, 0x00000000c4400000|  0%| F|  |TAMS 0x00000000c4300000, 0x00000000c4300000| Untracked 
|  42|0x00000000c4400000, 0x00000000c4400000, 0x00000000c4500000|  0%| F|  |TAMS 0x00000000c4400000, 0x00000000c4400000| Untracked 
|  43|0x00000000c4500000, 0x00000000c4500000, 0x00000000c4600000|  0%| F|  |TAMS 0x00000000c4500000, 0x00000000c4500000| Untracked 
|  44|0x00000000c4600000, 0x00000000c4700000, 0x00000000c4700000|100%| S|CS|TAMS 0x00000000c4600000, 0x00000000c4600000| Complete 
|  45|0x00000000c4700000, 0x00000000c4700000, 0x00000000c4800000|  0%| F|  |TAMS 0x00000000c4700000, 0x00000000c4700000| Untracked 
|  46|0x00000000c4800000, 0x00000000c4800000, 0x00000000c4900000|  0%| F|  |TAMS 0x00000000c4800000, 0x00000000c4800000| Untracked 
|  47|0x00000000c4900000, 0x00000000c4900000, 0x00000000c4a00000|  0%| F|  |TAMS 0x00000000c4900000, 0x00000000c4900000| Untracked 
|  48|0x00000000c4a00000, 0x00000000c4a00000, 0x00000000c4b00000|  0%| F|  |TAMS 0x00000000c4a00000, 0x00000000c4a00000| Untracked 
|  49|0x00000000c4b00000, 0x00000000c4b00000, 0x00000000c4c00000|  0%| F|  |TAMS 0x00000000c4b00000, 0x00000000c4b00000| Untracked 
|  50|0x00000000c4c00000, 0x00000000c4c00000, 0x00000000c4d00000|  0%| F|  |TAMS 0x00000000c4c00000, 0x00000000c4c00000| Untracked 
|  51|0x00000000c4d00000, 0x00000000c4d00000, 0x00000000c4e00000|  0%| F|  |TAMS 0x00000000c4d00000, 0x00000000c4d00000| Untracked 
|  52|0x00000000c4e00000, 0x00000000c4e00000, 0x00000000c4f00000|  0%| F|  |TAMS 0x00000000c4e00000, 0x00000000c4e00000| Untracked 
|  53|0x00000000c4f00000, 0x00000000c4f00000, 0x00000000c5000000|  0%| F|  |TAMS 0x00000000c4f00000, 0x00000000c4f00000| Untracked 
|  54|0x00000000c5000000, 0x00000000c5000000, 0x00000000c5100000|  0%| F|  |TAMS 0x00000000c5000000, 0x00000000c5000000| Untracked 
|  55|0x00000000c5100000, 0x00000000c5100000, 0x00000000c5200000|  0%| F|  |TAMS 0x00000000c5100000, 0x00000000c5100000| Untracked 
|  56|0x00000000c5200000, 0x00000000c5200000, 0x00000000c5300000|  0%| F|  |TAMS 0x00000000c5200000, 0x00000000c5200000| Untracked 
|  57|0x00000000c5300000, 0x00000000c5300000, 0x00000000c5400000|  0%| F|  |TAMS 0x00000000c5300000, 0x00000000c5300000| Untracked 
|  58|0x00000000c5400000, 0x00000000c5400000, 0x00000000c5500000|  0%| F|  |TAMS 0x00000000c5400000, 0x00000000c5400000| Untracked 
|  59|0x00000000c5500000, 0x00000000c5500000, 0x00000000c5600000|  0%| F|  |TAMS 0x00000000c5500000, 0x00000000c5500000| Untracked 
|  60|0x00000000c5600000, 0x00000000c5600000, 0x00000000c5700000|  0%| F|  |TAMS 0x00000000c5600000, 0x00000000c5600000| Untracked 
|  61|0x00000000c5700000, 0x00000000c5700000, 0x00000000c5800000|  0%| F|  |TAMS 0x00000000c5700000, 0x00000000c5700000| Untracked 
|  62|0x00000000c5800000, 0x00000000c5800000, 0x00000000c5900000|  0%| F|  |TAMS 0x00000000c5800000, 0x00000000c5800000| Untracked 
|  63|0x00000000c5900000, 0x00000000c5900000, 0x00000000c5a00000|  0%| F|  |TAMS 0x00000000c5900000, 0x00000000c5900000| Untracked 
|  64|0x00000000c5a00000, 0x00000000c5a00000, 0x00000000c5b00000|  0%| F|  |TAMS 0x00000000c5a00000, 0x00000000c5a00000| Untracked 
|  65|0x00000000c5b00000, 0x00000000c5b00000, 0x00000000c5c00000|  0%| F|  |TAMS 0x00000000c5b00000, 0x00000000c5b00000| Untracked 
|  66|0x00000000c5c00000, 0x00000000c5c00000, 0x00000000c5d00000|  0%| F|  |TAMS 0x00000000c5c00000, 0x00000000c5c00000| Untracked 
|  67|0x00000000c5d00000, 0x00000000c5d00000, 0x00000000c5e00000|  0%| F|  |TAMS 0x00000000c5d00000, 0x00000000c5d00000| Untracked 
|  68|0x00000000c5e00000, 0x00000000c5e00000, 0x00000000c5f00000|  0%| F|  |TAMS 0x00000000c5e00000, 0x00000000c5e00000| Untracked 
|  69|0x00000000c5f00000, 0x00000000c5f00000, 0x00000000c6000000|  0%| F|  |TAMS 0x00000000c5f00000, 0x00000000c5f00000| Untracked 
|  70|0x00000000c6000000, 0x00000000c6000000, 0x00000000c6100000|  0%| F|  |TAMS 0x00000000c6000000, 0x00000000c6000000| Untracked 
|  71|0x00000000c6100000, 0x00000000c6100000, 0x00000000c6200000|  0%| F|  |TAMS 0x00000000c6100000, 0x00000000c6100000| Untracked 
|  72|0x00000000c6200000, 0x00000000c6200000, 0x00000000c6300000|  0%| F|  |TAMS 0x00000000c6200000, 0x00000000c6200000| Untracked 
|  73|0x00000000c6300000, 0x00000000c6300000, 0x00000000c6400000|  0%| F|  |TAMS 0x00000000c6300000, 0x00000000c6300000| Untracked 
|  74|0x00000000c6400000, 0x00000000c6400000, 0x00000000c6500000|  0%| F|  |TAMS 0x00000000c6400000, 0x00000000c6400000| Untracked 
|  75|0x00000000c6500000, 0x00000000c6500000, 0x00000000c6600000|  0%| F|  |TAMS 0x00000000c6500000, 0x00000000c6500000| Untracked 
|  76|0x00000000c6600000, 0x00000000c6600000, 0x00000000c6700000|  0%| F|  |TAMS 0x00000000c6600000, 0x00000000c6600000| Untracked 
|  77|0x00000000c6700000, 0x00000000c6700000, 0x00000000c6800000|  0%| F|  |TAMS 0x00000000c6700000, 0x00000000c6700000| Untracked 
|  78|0x00000000c6800000, 0x00000000c6864170, 0x00000000c6900000| 39%| E|  |TAMS 0x00000000c6800000, 0x00000000c6800000| Complete 
|  79|0x00000000c6900000, 0x00000000c6a00000, 0x00000000c6a00000|100%| E|CS|TAMS 0x00000000c6900000, 0x00000000c6900000| Complete 
|  80|0x00000000c6a00000, 0x00000000c6b00000, 0x00000000c6b00000|100%| E|CS|TAMS 0x00000000c6a00000, 0x00000000c6a00000| Complete 
|  81|0x00000000c6b00000, 0x00000000c6c00000, 0x00000000c6c00000|100%| E|CS|TAMS 0x00000000c6b00000, 0x00000000c6b00000| Complete 
|  82|0x00000000c6c00000, 0x00000000c6d00000, 0x00000000c6d00000|100%| E|CS|TAMS 0x00000000c6c00000, 0x00000000c6c00000| Complete 
|  83|0x00000000c6d00000, 0x00000000c6e00000, 0x00000000c6e00000|100%| E|CS|TAMS 0x00000000c6d00000, 0x00000000c6d00000| Complete 

Card table byte_map: [0x0000020ee8c10000,0x0000020ee8e10000] _byte_map_base: 0x0000020ee8603000

Marking Bits (Prev, Next): (CMBitMap*) 0x0000020ed60407d0, (CMBitMap*) 0x0000020ed6040810
 Prev Bits: [0x0000020ee9010000, 0x0000020ee9fa8000)
 Next Bits: [0x0000020ee9fb0000, 0x0000020eeaf48000)

Polling page: 0x0000020ed3e70000

Metaspace:

Usage:
  Non-class:     62.00 MB capacity,    61.62 MB (>99%) used,   302.80 KB ( <1%) free+waste,    89.63 KB ( <1%) overhead. 
      Class:      8.53 MB capacity,     8.23 MB ( 96%) used,   274.70 KB (  3%) free+waste,    31.81 KB ( <1%) overhead. 
       Both:     70.53 MB capacity,    69.85 MB (>99%) used,   577.51 KB ( <1%) free+waste,   121.44 KB ( <1%) overhead. 

Virtual space:
  Non-class space:       64.00 MB reserved,      62.50 MB ( 98%) committed 
      Class space:        1.00 GB reserved,       8.75 MB ( <1%) committed 
             Both:        1.06 GB reserved,      71.25 MB (  7%) committed 

Chunk freelists:
   Non-Class:  380.00 KB
       Class:  166.00 KB
        Both:  546.00 KB

MaxMetaspaceSize: 17179869184.00 GB
CompressedClassSpaceSize: 1.00 GB

CodeHeap 'non-profiled nmethods': size=120000Kb used=6835Kb max_used=6835Kb free=113164Kb
 bounds [0x0000020ee14e0000, 0x0000020ee1b90000, 0x0000020ee8a10000]
CodeHeap 'profiled nmethods': size=120000Kb used=15155Kb max_used=16131Kb free=104844Kb
 bounds [0x0000020ed9fb0000, 0x0000020edafa0000, 0x0000020ee14e0000]
CodeHeap 'non-nmethods': size=5760Kb used=1329Kb max_used=1426Kb free=4430Kb
 bounds [0x0000020ed9a10000, 0x0000020ed9c80000, 0x0000020ed9fb0000]
 total_blobs=8774 nmethods=8147 adapters=538
 compilation: enabled
              stopped_count=0, restarted_count=0
 full_count=0

Compilation events (20 events):
Event: 10373.802 Thread 0x0000020eedcc8ab0 nmethod 9892 0x0000020ee1b8c490 code [0x0000020ee1b8c620, 0x0000020ee1b8c6a8]
Event: 10373.802 Thread 0x0000020eedcc8ab0 9885       4       org.springframework.boot.context.properties.bind.JavaBeanBinder$Bean$$Lambda$186/0x00000001001a57a8::apply (8 bytes)
Event: 10373.802 Thread 0x0000020eedcc8ab0 nmethod 9885 0x0000020ee1b8c790 code [0x0000020ee1b8c920, 0x0000020ee1b8c9b8]
Event: 10406.275 Thread 0x0000020eedcc9460 9893       3       java.lang.Thread::<init> (249 bytes)
Event: 10406.278 Thread 0x0000020eedcc9460 nmethod 9893 0x0000020eda0e2110 code [0x0000020eda0e24e0, 0x0000020eda0e43f8]
Event: 10406.278 Thread 0x0000020eedcc9460 9894   !   3       java.lang.ThreadGroup::addUnstarted (40 bytes)
Event: 10406.278 Thread 0x0000020eedcc9460 nmethod 9894 0x0000020eda905e90 code [0x0000020eda906040, 0x0000020eda9062e8]
Event: 10406.278 Thread 0x0000020eedcc9460 9895  s    3       java.lang.Thread::nextThreadID (10 bytes)
Event: 10406.278 Thread 0x0000020eedcc9460 nmethod 9895 0x0000020edab40a10 code [0x0000020edab40ba0, 0x0000020edab40d58]
Event: 10406.302 Thread 0x0000020eedcc9460 9896  s!   3       org.apache.catalina.util.LifecycleBase::destroy (274 bytes)
Event: 10406.305 Thread 0x0000020eedcc9460 nmethod 9896 0x0000020eda2eac10 code [0x0000020eda2eb060, 0x0000020eda2ed548]
Event: 10406.305 Thread 0x0000020eedcc9460 9898   !   3       org.springframework.beans.factory.support.DefaultSingletonBeanRegistry::destroySingleton (45 bytes)
Event: 10406.306 Thread 0x0000020eedcc9460 nmethod 9898 0x0000020eda26ee90 code [0x0000020eda26f060, 0x0000020eda26f5a8]
Event: 10406.306 Thread 0x0000020eedcc9460 9899   !   3       org.springframework.beans.factory.support.DefaultSingletonBeanRegistry::removeSingleton (62 bytes)
Event: 10406.307 Thread 0x0000020eedcc9460 nmethod 9899 0x0000020eda31c190 code [0x0000020eda31c380, 0x0000020eda31c898]
Event: 10406.307 Thread 0x0000020eedcc9460 9900   !   3       java.util.concurrent.ThreadPoolExecutor::tryTerminate (163 bytes)
Event: 10406.308 Thread 0x0000020eedcc9460 nmethod 9900 0x0000020eda2ce490 code [0x0000020eda2ce840, 0x0000020eda2d0228]
Event: 10406.308 Thread 0x0000020eedcc9460 9897       1       org.apache.catalina.valves.ValveBase::setContainer (6 bytes)
Event: 10406.308 Thread 0x0000020eedcc9460 nmethod 9897 0x0000020ee1b8ca90 code [0x0000020ee1b8cc20, 0x0000020ee1b8cd18]
Event: 10406.366 Thread 0x0000020eedcc8ab0 9901       4       com.sun.crypto.provider.CipherCore::getOutputSizeByOperation (177 bytes)

GC Heap History (20 events):
Event: 9173.470 GC heap before
{Heap before GC invocations=107 (full 6):
 garbage-first heap   total 73728K, used 57821K [0x00000000c1a00000, 0x0000000100000000)
  region size 1024K, 33 young (33792K), 5 survivors (5120K)
 Metaspace       used 71452K, capacity 72258K, committed 72704K, reserved 1114112K
  class space    used 8459K, capacity 8819K, committed 8960K, reserved 1048576K
}
Event: 9173.521 GC heap after
{Heap after GC invocations=108 (full 6):
 garbage-first heap   total 73728K, used 31554K [0x00000000c1a00000, 0x0000000100000000)
  region size 1024K, 3 young (3072K), 3 survivors (3072K)
 Metaspace       used 71452K, capacity 72258K, committed 72704K, reserved 1114112K
  class space    used 8459K, capacity 8819K, committed 8960K, reserved 1048576K
}
Event: 9173.593 GC heap before
{Heap before GC invocations=108 (full 6):
 garbage-first heap   total 73728K, used 57154K [0x00000000c1a00000, 0x0000000100000000)
  region size 1024K, 29 young (29696K), 3 survivors (3072K)
 Metaspace       used 71454K, capacity 72258K, committed 72704K, reserved 1114112K
  class space    used 8459K, capacity 8819K, committed 8960K, reserved 1048576K
}
Event: 9173.611 GC heap after
{Heap after GC invocations=109 (full 6):
 garbage-first heap   total 73728K, used 32026K [0x00000000c1a00000, 0x0000000100000000)
  region size 1024K, 1 young (1024K), 1 survivors (1024K)
 Metaspace       used 71454K, capacity 72258K, committed 72704K, reserved 1114112K
  class space    used 8459K, capacity 8819K, committed 8960K, reserved 1048576K
}
Event: 9174.001 GC heap before
{Heap before GC invocations=110 (full 6):
 garbage-first heap   total 81920K, used 58650K [0x00000000c1a00000, 0x0000000100000000)
  region size 1024K, 28 young (28672K), 1 survivors (1024K)
 Metaspace       used 71529K, capacity 72450K, committed 72704K, reserved 1114112K
  class space    used 8459K, capacity 8819K, committed 8960K, reserved 1048576K
}
Event: 9174.017 GC heap after
{Heap after GC invocations=111 (full 6):
 garbage-first heap   total 81920K, used 32603K [0x00000000c1a00000, 0x0000000100000000)
  region size 1024K, 1 young (1024K), 1 survivors (1024K)
 Metaspace       used 71529K, capacity 72450K, committed 72704K, reserved 1114112K
  class space    used 8459K, capacity 8819K, committed 8960K, reserved 1048576K
}
Event: 9174.256 GC heap before
{Heap before GC invocations=111 (full 6):
 garbage-first heap   total 81920K, used 66395K [0x00000000c1a00000, 0x0000000100000000)
  region size 1024K, 35 young (35840K), 1 survivors (1024K)
 Metaspace       used 71716K, capacity 72602K, committed 72960K, reserved 1114112K
  class space    used 8471K, capacity 8862K, committed 8960K, reserved 1048576K
}
Event: 9174.262 GC heap after
{Heap after GC invocations=112 (full 6):
 garbage-first heap   total 81920K, used 35924K [0x00000000c1a00000, 0x0000000100000000)
  region size 1024K, 5 young (5120K), 5 survivors (5120K)
 Metaspace       used 71716K, capacity 72602K, committed 72960K, reserved 1114112K
  class space    used 8471K, capacity 8862K, committed 8960K, reserved 1048576K
}
Event: 9377.376 GC heap before
{Heap before GC invocations=113 (full 6):
 garbage-first heap   total 87040K, used 65620K [0x00000000c1a00000, 0x0000000100000000)
  region size 1024K, 34 young (34816K), 5 survivors (5120K)
 Metaspace       used 71733K, capacity 72611K, committed 72960K, reserved 1114112K
  class space    used 8473K, capacity 8865K, committed 8960K, reserved 1048576K
}
Event: 9377.513 GC heap after
{Heap after GC invocations=114 (full 6):
 garbage-first heap   total 87040K, used 37817K [0x00000000c1a00000, 0x0000000100000000)
  region size 1024K, 2 young (2048K), 2 survivors (2048K)
 Metaspace       used 71733K, capacity 72611K, committed 72960K, reserved 1114112K
  class space    used 8473K, capacity 8865K, committed 8960K, reserved 1048576K
}
Event: 9910.034 GC heap before
{Heap before GC invocations=114 (full 6):
 garbage-first heap   total 87040K, used 69561K [0x00000000c1a00000, 0x0000000100000000)
  region size 1024K, 33 young (33792K), 2 survivors (2048K)
 Metaspace       used 71767K, capacity 72617K, committed 72960K, reserved 1114112K
  class space    used 8473K, capacity 8866K, committed 8960K, reserved 1048576K
}
Event: 9910.433 GC heap after
{Heap after GC invocations=115 (full 6):
 garbage-first heap   total 87040K, used 38000K [0x00000000c1a00000, 0x0000000100000000)
  region size 1024K, 3 young (3072K), 3 survivors (3072K)
 Metaspace       used 71767K, capacity 72617K, committed 72960K, reserved 1114112K
  class space    used 8473K, capacity 8866K, committed 8960K, reserved 1048576K
}
Event: 10360.580 GC heap before
{Heap before GC invocations=116 (full 6):
 garbage-first heap   total 87040K, used 64624K [0x00000000c1a00000, 0x0000000100000000)
  region size 1024K, 30 young (30720K), 3 survivors (3072K)
 Metaspace       used 71770K, capacity 72681K, committed 72960K, reserved 1114112K
  class space    used 8473K, capacity 8866K, committed 8960K, reserved 1048576K
}
Event: 10362.812 GC heap after
{Heap after GC invocations=117 (full 7):
 garbage-first heap   total 86016K, used 23854K [0x00000000c1a00000, 0x0000000100000000)
  region size 1024K, 0 young (0K), 0 survivors (0K)
 Metaspace       used 71485K, capacity 72289K, committed 72960K, reserved 1114112K
  class space    used 8432K, capacity 8767K, committed 8960K, reserved 1048576K
}
Event: 10366.358 GC heap before
{Heap before GC invocations=117 (full 7):
 garbage-first heap   total 86016K, used 66862K [0x00000000c1a00000, 0x0000000100000000)
  region size 1024K, 43 young (44032K), 0 survivors (0K)
 Metaspace       used 71539K, capacity 72324K, committed 72960K, reserved 1114112K
  class space    used 8438K, capacity 8776K, committed 8960K, reserved 1048576K
}
Event: 10366.366 GC heap after
{Heap after GC invocations=118 (full 7):
 garbage-first heap   total 86016K, used 25956K [0x00000000c1a00000, 0x0000000100000000)
  region size 1024K, 3 young (3072K), 3 survivors (3072K)
 Metaspace       used 71539K, capacity 72324K, committed 72960K, reserved 1114112K
  class space    used 8438K, capacity 8776K, committed 8960K, reserved 1048576K
}
Event: 10370.313 GC heap before
{Heap before GC invocations=119 (full 7):
 garbage-first heap   total 86016K, used 65892K [0x00000000c1a00000, 0x0000000100000000)
  region size 1024K, 43 young (44032K), 3 survivors (3072K)
 Metaspace       used 71276K, capacity 71888K, committed 72960K, reserved 1114112K
  class space    used 8411K, capacity 8686K, committed 8960K, reserved 1048576K
}
Event: 10370.321 GC heap after
{Heap after GC invocations=120 (full 7):
 garbage-first heap   total 86016K, used 27467K [0x00000000c1a00000, 0x0000000100000000)
  region size 1024K, 4 young (4096K), 4 survivors (4096K)
 Metaspace       used 71276K, capacity 71888K, committed 72960K, reserved 1114112K
  class space    used 8411K, capacity 8686K, committed 8960K, reserved 1048576K
}
Event: 10373.732 GC heap before
{Heap before GC invocations=120 (full 7):
 garbage-first heap   total 86016K, used 66379K [0x00000000c1a00000, 0x0000000100000000)
  region size 1024K, 43 young (44032K), 4 survivors (4096K)
 Metaspace       used 71510K, capacity 72216K, committed 72960K, reserved 1114112K
  class space    used 8422K, capacity 8728K, committed 8960K, reserved 1048576K
}
Event: 10373.748 GC heap after
{Heap after GC invocations=121 (full 7):
 garbage-first heap   total 86016K, used 31575K [0x00000000c1a00000, 0x0000000100000000)
  region size 1024K, 6 young (6144K), 6 survivors (6144K)
 Metaspace       used 71510K, capacity 72216K, committed 72960K, reserved 1114112K
  class space    used 8422K, capacity 8728K, committed 8960K, reserved 1048576K
}

Deoptimization events (20 events):
Event: 10370.365 Thread 0x0000020ef25276a0 DEOPT PACKING pc=0x0000020ee1b61544 sp=0x000000ae766fd610
Event: 10370.365 Thread 0x0000020ef25276a0 DEOPT UNPACKING pc=0x0000020ed9a5e42f sp=0x000000ae766fd590 mode 2
Event: 10370.365 Thread 0x0000020ef25276a0 Uncommon trap: trap_request=0xffffffbe fr.pc=0x0000020ee1b61544 relative=0x00000000000000c4
Event: 10370.365 Thread 0x0000020ef25276a0 Uncommon trap: reason=profile_predicate action=maybe_recompile pc=0x0000020ee1b61544 method=java.math.BigInteger.longValue()J @ 5 c2
Event: 10370.365 Thread 0x0000020ef25276a0 DEOPT PACKING pc=0x0000020ee1b61544 sp=0x000000ae766fd610
Event: 10370.365 Thread 0x0000020ef25276a0 DEOPT UNPACKING pc=0x0000020ed9a5e42f sp=0x000000ae766fd590 mode 2
Event: 10370.365 Thread 0x0000020ef25276a0 Uncommon trap: trap_request=0xffffffbe fr.pc=0x0000020ee1b61544 relative=0x00000000000000c4
Event: 10370.365 Thread 0x0000020ef25276a0 Uncommon trap: reason=profile_predicate action=maybe_recompile pc=0x0000020ee1b61544 method=java.math.BigInteger.longValue()J @ 5 c2
Event: 10370.365 Thread 0x0000020ef25276a0 DEOPT PACKING pc=0x0000020ee1b61544 sp=0x000000ae766fd610
Event: 10370.365 Thread 0x0000020ef25276a0 DEOPT UNPACKING pc=0x0000020ed9a5e42f sp=0x000000ae766fd590 mode 2
Event: 10370.369 Thread 0x0000020ef25276a0 DEOPT PACKING pc=0x0000020ed9fb7579 sp=0x000000ae766fdd40
Event: 10370.369 Thread 0x0000020ef25276a0 DEOPT UNPACKING pc=0x0000020ed9a5e23f sp=0x000000ae766fd250 mode 0
Event: 10370.419 Thread 0x0000020ef25276a0 DEOPT PACKING pc=0x0000020eda81c7f5 sp=0x000000ae766fdaf0
Event: 10370.420 Thread 0x0000020ef25276a0 DEOPT UNPACKING pc=0x0000020ed9a5e23f sp=0x000000ae766fcfe8 mode 0
Event: 10370.420 Thread 0x0000020ef25276a0 DEOPT PACKING pc=0x0000020ed9feed9f sp=0x000000ae766fd9e0
Event: 10370.420 Thread 0x0000020ef25276a0 DEOPT UNPACKING pc=0x0000020ed9a5e23f sp=0x000000ae766fcee8 mode 0
Event: 10373.774 Thread 0x0000020ef25289e0 Uncommon trap: trap_request=0xffffff5c fr.pc=0x0000020ee179f5e8 relative=0x0000000000000fc8
Event: 10373.774 Thread 0x0000020ef25289e0 Uncommon trap: reason=speculate_null_check action=make_not_entrant pc=0x0000020ee179f5e8 method=java.util.concurrent.locks.AbstractQueuedSynchronizer.enqueue(Ljava/util/concurrent/locks/AbstractQueuedSynchronizer$Node;)V @ 15 c2
Event: 10373.774 Thread 0x0000020ef25289e0 DEOPT PACKING pc=0x0000020ee179f5e8 sp=0x000000ae761fde50
Event: 10373.774 Thread 0x0000020ef25289e0 DEOPT UNPACKING pc=0x0000020ed9a5e42f sp=0x000000ae761fdc30 mode 2

Classes unloaded (20 events):
Event: 10366.430 Thread 0x0000020eed457f70 Unloading class 0x0000000100392040 'com/sun/proxy/$Proxy112'
Event: 10366.430 Thread 0x0000020eed457f70 Unloading class 0x000000010089e4b0 'com/user/userauthentication/user/User$HibernateProxy$Fj1DibQp'
Event: 10366.430 Thread 0x0000020eed457f70 Unloading class 0x000000010089e280 'com/user/userauthentication/UserAuthenticationApplication$$EnhancerBySpringCGLIB$$d80cd9f0'
Event: 10366.430 Thread 0x0000020eed457f70 Unloading class 0x000000010089e040 'com/user/userauthentication/user/User'
Event: 10366.430 Thread 0x0000020eed457f70 Unloading class 0x000000010089ec58 'com/user/userauthentication/repository/UserRepository'
Event: 10366.430 Thread 0x0000020eed457f70 Unloading class 0x000000010089ea40 'com/user/userauthentication/controller/UserController'
Event: 10366.430 Thread 0x0000020eed457f70 Unloading class 0x000000010089e840 'com/user/userauthentication/UserAuthenticationApplication'
Event: 10366.430 Thread 0x0000020eed457f70 Unloading class 0x000000010089f840 'jdk/internal/reflect/GeneratedMethodAccessor115'
Event: 10366.430 Thread 0x0000020eed457f70 Unloading class 0x00000001008a0cb8 'com/sun/proxy/$Proxy111'
Event: 10366.430 Thread 0x0000020eed457f70 Unloading class 0x00000001008a0040 'com/sun/proxy/$Proxy110'
Event: 10366.430 Thread 0x0000020eed457f70 Unloading class 0x000000010089c040 'com/sun/proxy/$Proxy109'
Event: 10366.430 Thread 0x0000020eed457f70 Unloading class 0x0000000100899cb0 'com/user/userauthentication/user/User$HibernateProxy$zySR4rr1'
Event: 10366.430 Thread 0x0000020eed457f70 Unloading class 0x0000000100899a80 'com/user/userauthentication/UserAuthenticationApplication$$EnhancerBySpringCGLIB$$d80cd9f0'
Event: 10366.430 Thread 0x0000020eed457f70 Unloading class 0x0000000100899840 'com/user/userauthentication/user/User'
Event: 10366.430 Thread 0x0000020eed457f70 Unloading class 0x000000010086cc58 'com/user/userauthentication/repository/UserRepository'
Event: 10366.430 Thread 0x0000020eed457f70 Unloading class 0x000000010086ca40 'com/user/userauthentication/controller/UserController'
Event: 10366.430 Thread 0x0000020eed457f70 Unloading class 0x000000010086c840 'com/user/userauthentication/UserAuthenticationApplication'
Event: 10366.430 Thread 0x0000020eed457f70 Unloading class 0x000000010086b040 'jdk/internal/reflect/GeneratedMethodAccessor104'
Event: 10366.430 Thread 0x0000020eed457f70 Unloading class 0x000000010086fc40 'jdk/internal/reflect/GeneratedMethodAccessor101'
Event: 10366.430 Thread 0x0000020eed457f70 Unloading class 0x000000010086f840 'jdk/internal/reflect/GeneratedMethodAccessor100'

Classes redefined (0 events):
No events

Internal exceptions (20 events):
Event: 9134.391 Thread 0x0000020ef253f300 Exception <a 'java/lang/reflect/InvocationTargetException'{0x00000000c5cf8358}> (0x00000000c5cf8358) 
thrown [./open/src/hotspot/share/runtime/reflection.cpp, line 1157]
Event: 9172.954 Thread 0x0000020ef2543b30 Exception <a 'java/io/FileNotFoundException'{0x00000000c5927be8}> (0x00000000c5927be8) 
thrown [./open/src/hotspot/share/prims/jni.cpp, line 578]
Event: 9173.699 Thread 0x0000020ef2543b30 Exception <a 'java/io/FileNotFoundException'{0x00000000c52803a0}> (0x00000000c52803a0) 
thrown [./open/src/hotspot/share/prims/jni.cpp, line 578]
Event: 9173.756 Thread 0x0000020ef2543b30 Exception <a 'java/io/FileNotFoundException'{0x00000000c69e2a60}> (0x00000000c69e2a60) 
thrown [./open/src/hotspot/share/prims/jni.cpp, line 578]
Event: 9174.079 Thread 0x0000020ef2543b30 Exception <a 'java/lang/ClassNotFoundException'{0x00000000c63cec68}: java/lang/ObjectCustomizer> (0x00000000c63cec68) 
thrown [./open/src/hotspot/share/classfile/systemDictionary.cpp, line 295]
Event: 9174.080 Thread 0x0000020ef2543b30 Exception <a 'java/lang/ClassNotFoundException'{0x00000000c63d6ca8}: com/user/userauthentication/user/UserCustomizer> (0x00000000c63d6ca8) 
thrown [./open/src/hotspot/share/classfile/systemDictionary.cpp, line 295]
Event: 9174.805 Thread 0x0000020eeed98570 Implicit null exception at 0x0000020ee1a3750b to 0x0000020ee1a37609
Event: 10359.955 Thread 0x0000020ef253f300 Exception <a 'java/lang/InterruptedException'{0x00000000c55b4a70}: sleep interrupted> (0x00000000c55b4a70) 
thrown [./open/src/hotspot/share/prims/jvm.cpp, line 3278]
Event: 10363.175 Thread 0x0000020ef25289e0 Exception <a 'java/io/FileNotFoundException'{0x00000000c6dfa230}> (0x00000000c6dfa230) 
thrown [./open/src/hotspot/share/prims/jni.cpp, line 578]
Event: 10366.407 Thread 0x0000020ef25289e0 Exception <a 'java/io/FileNotFoundException'{0x00000000c5a2e8a8}> (0x00000000c5a2e8a8) 
thrown [./open/src/hotspot/share/prims/jni.cpp, line 578]
Event: 10366.976 Thread 0x0000020ef25289e0 Exception <a 'java/io/FileNotFoundException'{0x00000000c59cf2c0}> (0x00000000c59cf2c0) 
thrown [./open/src/hotspot/share/prims/jni.cpp, line 578]
Event: 10373.059 Thread 0x0000020ef25289e0 Exception <a 'java/lang/ClassNotFoundException'{0x00000000c51fa968}: java/lang/ObjectCustomizer> (0x00000000c51fa968) 
thrown [./open/src/hotspot/share/classfile/systemDictionary.cpp, line 295]
Event: 10373.069 Thread 0x0000020ef25289e0 Exception <a 'java/lang/ClassNotFoundException'{0x00000000c5003b18}: com/user/userauthentication/user/UserCustomizer> (0x00000000c5003b18) 
thrown [./open/src/hotspot/share/classfile/systemDictionary.cpp, line 295]
Event: 10406.302 Thread 0x0000020ef2526360 Exception <a 'java/lang/InterruptedException'{0x00000000c68146e8}: sleep interrupted> (0x00000000c68146e8) 
thrown [./open/src/hotspot/share/prims/jvm.cpp, line 3278]
Event: 10406.331 Thread 0x0000020ef2529380 Exception <a 'java/io/IOException'{0x00000000c683f038}> (0x00000000c683f038) 
thrown [./open/src/hotspot/share/prims/jni.cpp, line 578]
Event: 10406.366 Thread 0x0000020ef2529380 Exception <a 'java/io/IOException'{0x00000000c6842618}> (0x00000000c6842618) 
thrown [./open/src/hotspot/share/prims/jni.cpp, line 578]
Event: 10406.366 Thread 0x0000020ef2529380 Exception <a 'java/io/IOException'{0x00000000c6842f28}> (0x00000000c6842f28) 
thrown [./open/src/hotspot/share/prims/jni.cpp, line 578]
Event: 10406.383 Thread 0x0000020ef2529380 Exception <a 'java/net/SocketException'{0x00000000c6844b40}: Connection reset by peer: shutdown> (0x00000000c6844b40) 
thrown [./open/src/hotspot/share/prims/jni.cpp, line 599]
Event: 10406.383 Thread 0x0000020ef2529380 Exception <a 'java/io/IOException'{0x00000000c68461e0}> (0x00000000c68461e0) 
thrown [./open/src/hotspot/share/prims/jni.cpp, line 578]
Event: 10406.384 Thread 0x0000020ef2529380 Exception <a 'sun/net/ConnectionResetException'{0x00000000c684aaa8}: Connection reset> (0x00000000c684aaa8) 
thrown [./open/src/hotspot/share/prims/jni.cpp, line 599]

Events (20 events):
Event: 10406.293 Thread 0x0000020ef252b530 Thread exited: 0x0000020ef252b530
Event: 10406.301 Thread 0x0000020ef252c3a0 Thread exited: 0x0000020ef252c3a0
Event: 10406.301 Thread 0x0000020ef252a1f0 Thread exited: 0x0000020ef252a1f0
Event: 10406.301 Thread 0x0000020ef2529850 Thread exited: 0x0000020ef2529850
Event: 10406.301 Thread 0x0000020ef2528510 Thread exited: 0x0000020ef2528510
Event: 10406.301 Thread 0x0000020ef252b060 Thread exited: 0x0000020ef252b060
Event: 10406.301 Thread 0x0000020ef25254f0 Thread exited: 0x0000020ef25254f0
Event: 10406.302 Thread 0x0000020ef252a6c0 Thread exited: 0x0000020ef252a6c0
Event: 10406.302 Thread 0x0000020ef252bed0 Thread exited: 0x0000020ef252bed0
Event: 10406.302 Thread 0x0000020ef252ab90 Thread exited: 0x0000020ef252ab90
Event: 10406.302 Thread 0x0000020ef2529d20 Thread exited: 0x0000020ef2529d20
Event: 10406.302 Thread 0x0000020ef25271d0 Thread exited: 0x0000020ef25271d0
Event: 10406.302 Thread 0x0000020ef2526d00 Thread exited: 0x0000020ef2526d00
Event: 10406.302 Thread 0x0000020ef2526360 Thread exited: 0x0000020ef2526360
Event: 10406.303 Thread 0x0000020ef2525e90 Thread exited: 0x0000020ef2525e90
Event: 10406.303 Thread 0x0000020ef2528eb0 Thread exited: 0x0000020ef2528eb0
Event: 10406.305 Thread 0x0000020ef2529380 Thread added: 0x0000020ef2529380
Event: 10406.305 Thread 0x0000020ef2527b70 Thread exited: 0x0000020ef2527b70
Event: 10406.385 Thread 0x0000020ef2529380 Thread exited: 0x0000020ef2529380
Event: 10406.386 Executing VM operation: G1CollectFull


Dynamic libraries:
0x00007ff7e8810000 - 0x00007ff7e881d000 	C:\Users\hp\Desktop\STS\sts-4.8.1.RELEASE\plugins\org.eclipse.justj.openjdk.hotspot.jre.full.win32.x86_64_15.0.0.v20201014-1246\jre\bin\javaw.exe
0x00007ff969ca0000 - 0x00007ff969e90000 	C:\WINDOWS\SYSTEM32\ntdll.dll
0x00007ff967e80000 - 0x00007ff967f32000 	C:\WINDOWS\System32\KERNEL32.DLL
0x00007ff9677a0000 - 0x00007ff967a44000 	C:\WINDOWS\System32\KERNELBASE.dll
0x00007ff966d80000 - 0x00007ff966e7a000 	C:\WINDOWS\System32\ucrtbase.dll
0x00007ff94d010000 - 0x00007ff94d029000 	C:\Users\hp\Desktop\STS\sts-4.8.1.RELEASE\plugins\org.eclipse.justj.openjdk.hotspot.jre.full.win32.x86_64_15.0.0.v20201014-1246\jre\bin\VCRUNTIME140.dll
0x00007ff95b2d0000 - 0x00007ff95b2e8000 	C:\Users\hp\Desktop\STS\sts-4.8.1.RELEASE\plugins\org.eclipse.justj.openjdk.hotspot.jre.full.win32.x86_64_15.0.0.v20201014-1246\jre\bin\jli.dll
0x00007ff968410000 - 0x00007ff9685a4000 	C:\WINDOWS\System32\USER32.dll
0x00007ff95cca0000 - 0x00007ff95cf24000 	C:\WINDOWS\WinSxS\amd64_microsoft.windows.common-controls_6595b64144ccf1df_6.0.18362.836_none_e6c4b943130f18ed\COMCTL32.dll
0x00007ff967c50000 - 0x00007ff967c71000 	C:\WINDOWS\System32\win32u.dll
0x00007ff969300000 - 0x00007ff96939e000 	C:\WINDOWS\System32\msvcrt.dll
0x00007ff968df0000 - 0x00007ff968e16000 	C:\WINDOWS\System32\GDI32.dll
0x00007ff967600000 - 0x00007ff967794000 	C:\WINDOWS\System32\gdi32full.dll
0x00007ff967f90000 - 0x00007ff9682c6000 	C:\WINDOWS\System32\combase.dll
0x00007ff967a50000 - 0x00007ff967aee000 	C:\WINDOWS\System32\msvcp_win.dll
0x00007ff968a30000 - 0x00007ff968b50000 	C:\WINDOWS\System32\RPCRT4.dll
0x00007ff967bd0000 - 0x00007ff967c50000 	C:\WINDOWS\System32\bcryptPrimitives.dll
0x00007ff967f40000 - 0x00007ff967f6e000 	C:\WINDOWS\System32\IMM32.DLL
0x00007ff95b260000 - 0x00007ff95b26c000 	C:\Users\hp\Desktop\STS\sts-4.8.1.RELEASE\plugins\org.eclipse.justj.openjdk.hotspot.jre.full.win32.x86_64_15.0.0.v20201014-1246\jre\bin\vcruntime140_1.dll
0x00007ff93fc10000 - 0x00007ff93fca1000 	C:\Users\hp\Desktop\STS\sts-4.8.1.RELEASE\plugins\org.eclipse.justj.openjdk.hotspot.jre.full.win32.x86_64_15.0.0.v20201014-1246\jre\bin\msvcp140.dll
0x00007ff92f940000 - 0x00007ff93049c000 	C:\Users\hp\Desktop\STS\sts-4.8.1.RELEASE\plugins\org.eclipse.justj.openjdk.hotspot.jre.full.win32.x86_64_15.0.0.v20201014-1246\jre\bin\server\jvm.dll
0x00007ff969410000 - 0x00007ff9694b3000 	C:\WINDOWS\System32\ADVAPI32.dll
0x00007ff968ef0000 - 0x00007ff968f87000 	C:\WINDOWS\System32\sechost.dll
0x00007ff968a20000 - 0x00007ff968a28000 	C:\WINDOWS\System32\PSAPI.DLL
0x00007ff95aee0000 - 0x00007ff95aee9000 	C:\WINDOWS\SYSTEM32\WSOCK32.dll
0x00007ff95d8b0000 - 0x00007ff95d8d4000 	C:\WINDOWS\SYSTEM32\WINMM.dll
0x00007ff968b50000 - 0x00007ff968bbf000 	C:\WINDOWS\System32\WS2_32.dll
0x00007ff960a00000 - 0x00007ff960a0a000 	C:\WINDOWS\SYSTEM32\VERSION.dll
0x00007ff95d880000 - 0x00007ff95d8ad000 	C:\WINDOWS\SYSTEM32\winmmbase.dll
0x00007ff967af0000 - 0x00007ff967b3a000 	C:\WINDOWS\System32\cfgmgr32.dll
0x00007ff966bf0000 - 0x00007ff966c01000 	C:\WINDOWS\System32\kernel.appcore.dll
0x00007ff95d850000 - 0x00007ff95d85a000 	C:\Users\hp\Desktop\STS\sts-4.8.1.RELEASE\plugins\org.eclipse.justj.openjdk.hotspot.jre.full.win32.x86_64_15.0.0.v20201014-1246\jre\bin\jimage.dll
0x00007ff965430000 - 0x00007ff965624000 	C:\WINDOWS\SYSTEM32\DBGHELP.DLL
0x00007ff95a4f0000 - 0x00007ff95a51a000 	C:\WINDOWS\SYSTEM32\dbgcore.DLL
0x00007ff94f040000 - 0x00007ff94f065000 	C:\Users\hp\Desktop\STS\sts-4.8.1.RELEASE\plugins\org.eclipse.justj.openjdk.hotspot.jre.full.win32.x86_64_15.0.0.v20201014-1246\jre\bin\java.dll
0x00007ff959c00000 - 0x00007ff959c18000 	C:\Users\hp\Desktop\STS\sts-4.8.1.RELEASE\plugins\org.eclipse.justj.openjdk.hotspot.jre.full.win32.x86_64_15.0.0.v20201014-1246\jre\bin\zip.dll
0x00007ff9694c0000 - 0x00007ff969ba4000 	C:\WINDOWS\System32\SHELL32.dll
0x00007ff969bb0000 - 0x00007ff969c59000 	C:\WINDOWS\System32\shcore.dll
0x00007ff966e80000 - 0x00007ff9675fe000 	C:\WINDOWS\System32\windows.storage.dll
0x00007ff966b70000 - 0x00007ff966b93000 	C:\WINDOWS\System32\profapi.dll
0x00007ff966ba0000 - 0x00007ff966bea000 	C:\WINDOWS\System32\powrprof.dll
0x00007ff966b60000 - 0x00007ff966b70000 	C:\WINDOWS\System32\UMPDC.dll
0x00007ff9692a0000 - 0x00007ff9692f2000 	C:\WINDOWS\System32\shlwapi.dll
0x00007ff967c80000 - 0x00007ff967c97000 	C:\WINDOWS\System32\cryptsp.dll
0x00007ff94de60000 - 0x00007ff94de79000 	C:\Users\hp\Desktop\STS\sts-4.8.1.RELEASE\plugins\org.eclipse.justj.openjdk.hotspot.jre.full.win32.x86_64_15.0.0.v20201014-1246\jre\bin\net.dll
0x00007ff95e8f0000 - 0x00007ff95e9e0000 	C:\WINDOWS\SYSTEM32\WINHTTP.dll
0x00007ff9663d0000 - 0x00007ff966437000 	C:\WINDOWS\system32\mswsock.dll
0x00007ff94de40000 - 0x00007ff94de52000 	C:\Users\hp\Desktop\STS\sts-4.8.1.RELEASE\plugins\org.eclipse.justj.openjdk.hotspot.jre.full.win32.x86_64_15.0.0.v20201014-1246\jre\bin\nio.dll
0x00007ff95c0e0000 - 0x00007ff95c0f0000 	C:\Users\hp\Desktop\STS\sts-4.8.1.RELEASE\plugins\org.eclipse.justj.openjdk.hotspot.jre.full.win32.x86_64_15.0.0.v20201014-1246\jre\bin\verify.dll
0x00007ff959c90000 - 0x00007ff959c99000 	C:\Users\hp\Desktop\STS\sts-4.8.1.RELEASE\plugins\org.eclipse.justj.openjdk.hotspot.jre.full.win32.x86_64_15.0.0.v20201014-1246\jre\bin\management.dll
0x00007ff94e290000 - 0x00007ff94e29b000 	C:\Users\hp\Desktop\STS\sts-4.8.1.RELEASE\plugins\org.eclipse.justj.openjdk.hotspot.jre.full.win32.x86_64_15.0.0.v20201014-1246\jre\bin\management_ext.dll
0x00007ff961c80000 - 0x00007ff961c96000 	C:\WINDOWS\system32\napinsp.dll
0x00007ff961c60000 - 0x00007ff961c7a000 	C:\WINDOWS\system32\pnrpnsp.dll
0x00007ff966130000 - 0x00007ff9661fb000 	C:\WINDOWS\SYSTEM32\DNSAPI.dll
0x00007ff9691c0000 - 0x00007ff9691c8000 	C:\WINDOWS\System32\NSI.dll
0x00007ff9660e0000 - 0x00007ff96611a000 	C:\WINDOWS\SYSTEM32\IPHLPAPI.DLL
0x00007ff961c50000 - 0x00007ff961c5e000 	C:\WINDOWS\System32\winrnr.dll
0x00007ff962eb0000 - 0x00007ff962ecc000 	C:\WINDOWS\system32\NLAapi.dll
0x00007ff9620e0000 - 0x00007ff9620f5000 	C:\WINDOWS\system32\wshbth.dll
0x00007ff95f2c0000 - 0x00007ff95f2ca000 	C:\Windows\System32\rasadhlp.dll
0x00007ff95eeb0000 - 0x00007ff95ef27000 	C:\WINDOWS\System32\fwpuclnt.dll
0x00007ff967ba0000 - 0x00007ff967bc6000 	C:\WINDOWS\System32\bcrypt.dll
0x0000000180000000 - 0x000000018018f000 	C:\apache-tomcat-8.0.29\bin\tcnative-1.dll
0x00007ff965f40000 - 0x00007ff965f73000 	C:\WINDOWS\system32\rsaenh.dll
0x00007ff966a80000 - 0x00007ff966aa5000 	C:\WINDOWS\SYSTEM32\USERENV.dll
0x00007ff9665a0000 - 0x00007ff9665ac000 	C:\WINDOWS\SYSTEM32\CRYPTBASE.dll
0x00007ff95ef90000 - 0x00007ff95efa6000 	C:\WINDOWS\SYSTEM32\dhcpcsvc6.DLL
0x00007ff95f1b0000 - 0x00007ff95f1cc000 	C:\WINDOWS\SYSTEM32\dhcpcsvc.DLL
0x00007ff95c0a0000 - 0x00007ff95c0ad000 	C:\Users\hp\Desktop\STS\sts-4.8.1.RELEASE\plugins\org.eclipse.justj.openjdk.hotspot.jre.full.win32.x86_64_15.0.0.v20201014-1246\jre\bin\sunmscapi.dll
0x00007ff966c30000 - 0x00007ff966d79000 	C:\WINDOWS\System32\CRYPT32.dll
0x00007ff966c10000 - 0x00007ff966c22000 	C:\WINDOWS\System32\MSASN1.dll
0x00007ff9666a0000 - 0x00007ff9666c6000 	C:\WINDOWS\SYSTEM32\ncrypt.dll
0x00007ff966660000 - 0x00007ff96669b000 	C:\WINDOWS\SYSTEM32\NTASN1.dll

dbghelp: loaded successfully - version: 4.0.5 - missing functions: none
symbol engine: initialized successfully - sym options: 0x614 - pdb path: .;C:\Users\hp\Desktop\STS\sts-4.8.1.RELEASE\plugins\org.eclipse.justj.openjdk.hotspot.jre.full.win32.x86_64_15.0.0.v20201014-1246\jre\bin;C:\WINDOWS\SYSTEM32;C:\WINDOWS\WinSxS\amd64_microsoft.windows.common-controls_6595b64144ccf1df_6.0.18362.836_none_e6c4b943130f18ed;C:\Users\hp\Desktop\STS\sts-4.8.1.RELEASE\plugins\org.eclipse.justj.openjdk.hotspot.jre.full.win32.x86_64_15.0.0.v20201014-1246\jre\bin\server;C:\apache-tomcat-8.0.29\bin

VM Arguments:
jvm_args: -Dfile.encoding=UTF-8 -XX:+ShowCodeDetailsInExceptionMessages 
java_command: com.user.userauthentication.UserAuthenticationApplication
java_class_path (initial): D:\Workspace STS\user-authentication\target\classes;C:\Users\hp\.m2\repository\org\springframework\boot\spring-boot-starter-data-jpa\2.4.1\spring-boot-starter-data-jpa-2.4.1.jar;C:\Users\hp\.m2\repository\org\springframework\boot\spring-boot-starter-aop\2.4.1\spring-boot-starter-aop-2.4.1.jar;C:\Users\hp\.m2\repository\org\springframework\spring-aop\5.3.2\spring-aop-5.3.2.jar;C:\Users\hp\.m2\repository\org\aspectj\aspectjweaver\1.9.6\aspectjweaver-1.9.6.jar;C:\Users\hp\.m2\repository\org\springframework\boot\spring-boot-starter-jdbc\2.4.1\spring-boot-starter-jdbc-2.4.1.jar;C:\Users\hp\.m2\repository\com\zaxxer\HikariCP\3.4.5\HikariCP-3.4.5.jar;C:\Users\hp\.m2\repository\org\springframework\spring-jdbc\5.3.2\spring-jdbc-5.3.2.jar;C:\Users\hp\.m2\repository\jakarta\transaction\jakarta.transaction-api\1.3.3\jakarta.transaction-api-1.3.3.jar;C:\Users\hp\.m2\repository\jakarta\persistence\jakarta.persistence-api\2.2.3\jakarta.persistence-api-2.2.3.jar;C:\Users\hp\.m2\repository\org\hibernate\hibernate-core\5.4.25.Final\hibernate-core-5.4.25.Final.jar;C:\Users\hp\.m2\repository\org\jboss\logging\jboss-logging\3.4.1.Final\jboss-logging-3.4.1.Final.jar;C:\Users\hp\.m2\repository\org\javassist\javassist\3.27.0-GA\javassist-3.27.0-GA.jar;C:\Users\hp\.m2\repository\net\bytebuddy\byte-buddy\1.10.18\byte-buddy-1.10.18.jar;C:\Users\hp\.m2\repository\antlr\antlr\2.7.7\antlr-2.7.7.jar;C:\Users\hp\.m2\repository\org\jboss\jandex\2.1.3.Final\jandex-2.1.3.Final.jar;C:\Users\hp\.m2\repository\com\fasterxml\classmate\1.5.1\classmate-1.5.1.jar;C:\Users\hp\.m2\repository\org\dom4j\dom4j\2.1.3\dom4j-2.1.3.jar;C:\Users\hp\.m2\repository\org\hibernate\common\hibernate-commons-annotations\5.1.2.Final\hibernate-commons-annotations-5.1.2.Final.jar;C:\Users\hp\.m2\repository\org\glassfish\jaxb\jaxb-runtime\2.3.3\jaxb-runtime-2.3.3.jar;C:\Users\hp\.m2\repository\org\glassfish\jaxb\txw2\2.3.3\txw2-2.3.3.jar;C:\Users\hp\.m2\repository\com\sun\istack\istack-commons-runti
Launcher Type: SUN_STANDARD

[Global flags]
     intx CICompilerCount                          = 3                                         {product} {ergonomic}
     uint ConcGCThreads                            = 1                                         {product} {ergonomic}
     uint G1ConcRefinementThreads                  = 4                                         {product} {ergonomic}
   size_t G1HeapRegionSize                         = 1048576                                   {product} {ergonomic}
    uintx GCDrainStackTargetSize                   = 64                                        {product} {ergonomic}
   size_t InitialHeapSize                          = 67108864                                  {product} {ergonomic}
   size_t MarkStackSize                            = 4194304                                   {product} {ergonomic}
   size_t MaxHeapSize                              = 1046478848                                {product} {ergonomic}
   size_t MaxNewSize                               = 627048448                                 {product} {ergonomic}
   size_t MinHeapDeltaBytes                        = 1048576                                   {product} {ergonomic}
   size_t MinHeapSize                              = 8388608                                   {product} {ergonomic}
    uintx NonNMethodCodeHeapSize                   = 5832780                                {pd product} {ergonomic}
    uintx NonProfiledCodeHeapSize                  = 122912730                              {pd product} {ergonomic}
    uintx ProfiledCodeHeapSize                     = 122912730                              {pd product} {ergonomic}
    uintx ReservedCodeCacheSize                    = 251658240                              {pd product} {ergonomic}
     bool SegmentedCodeCache                       = true                                      {product} {ergonomic}
     bool ShowCodeDetailsInExceptionMessages       = true                                   {manageable} {command line}
   size_t SoftMaxHeapSize                          = 1046478848                             {manageable} {ergonomic}
     bool UseCompressedClassPointers               = true                                 {lp64_product} {ergonomic}
     bool UseCompressedOops                        = true                                 {lp64_product} {ergonomic}
     bool UseG1GC                                  = true                                      {product} {ergonomic}
     bool UseLargePagesIndividualAllocation        = false                                  {pd product} {ergonomic}

Logging:
Log output configuration:
 #0: stdout all=warning uptime,level,tags
 #1: stderr all=off uptime,level,tags

Environment Variables:
JAVA_HOME=C:\Program Files\Java\jdk1.8.0_40
PATH=C:/Users/hp/Desktop/STS/sts-4.8.1.RELEASE//plugins/org.eclipse.justj.openjdk.hotspot.jre.full.win32.x86_64_15.0.0.v20201014-1246/jre/bin/server;C:/Users/hp/Desktop/STS/sts-4.8.1.RELEASE//plugins/org.eclipse.justj.openjdk.hotspot.jre.full.win32.x86_64_15.0.0.v20201014-1246/jre/bin;C:\Program Files\Common Files\Oracle\Java\javapath;C:\Program Files (x86)\NVIDIA Corporation\PhysX\Common;C:\ProgramData\Oracle\Java\javapath;C:\WINDOWS\system32;C:\WINDOWS;C:\WINDOWS\System32\Wbem;C:\WINDOWS\System32\WindowsPowerShell\v1.0\;C:\composer;C:\Program Files\Java\jdk-11.0.9\bin;C:\WINDOWS\System32\OpenSSH\;C:\apache-tomcat-8.0.29\bin;C:\Program Files\Git\cmd;C:\Program Files\nodejs\;C:\Program Files\MySQL\MySQL Server 8.0\bin;C:\Program Files\MongoDB\Server\4.4\bin;C:\Program Files\MySQL\MySQL Shell 8.0\bin\;C:\Users\hp\AppData\Local\Microsoft\WindowsApps;C:\Users\hp\AppData\Roaming\Composer\vendor\bin;;C:\Users\hp\AppData\Local\Programs\Microsoft VS Code\bin;C:\Users\hp\AppData\Roaming\npm;C:\Users\hp\Desktop\STS\sts-4.8.1.RELEASE;
USERNAME=hp
OS=Windows_NT
PROCESSOR_IDENTIFIER=Intel64 Family 6 Model 78 Stepping 3, GenuineIntel



---------------  S Y S T E M  ---------------

OS:
 Windows 10 , 64 bit Build 18362 (10.0.18362.778)
OS uptime: 0 days 5:16 hours

CPU: total 4 (initial active 4) (2 cores per cpu, 2 threads per core) family 6 model 78 stepping 3, cmov, cx8, fxsr, mmx, sse, sse2, sse3, ssse3, sse4.1, sse4.2, popcnt, vzeroupper, avx, avx2, aes, clmul, erms, 3dnowpref, lzcnt, ht, tsc, tscinvbit, bmi1, bmi2, adx, fma, clflush, clflushopt

Memory: 4k page, system-wide physical 3986M (290M free)
TotalPageFile size 6986M (AvailPageFile size 5M)
current process WorkingSet (physical memory assigned to process): 241M, peak: 244M
current process commit charge ("private bytes"): 307M, peak: 309M

vm_info: OpenJDK 64-Bit Server VM (15+36-1562) for windows-amd64 JRE (15+36-1562), built on Aug 11 2020 22:33:04 by "mach5one" with unknown MS VC++:1925

END.
